+----------+-----------+----------------+-------------+------------------+-----------------+----------------------+------------+
| Protocol | Source IP | Destination IP | Source Port | Destination Port | Source Location | Destination Location | Occurences |
+----------+-----------+----------------+-------------+------------------+-----------------+----------------------+------------+
+----------+-----------+----------------+-------------+------------------+-----------------+----------------------+------------+
